…
> install.packages("igraph")
Warning in install.packages :
  package ‘igraph’ is in use and will not be installed
> library("tidytext")
> library("igraph")
> library("ggraph")
> fileName <- 'C:/Users/DK/Desktop/MGR/APU/LAB7/Tesla.txt'
> text <- readLines(file.choose())
Komunikat ostrzegawczy:
W poleceniu 'readLines(file.choose())':
  niekompletna końcowa linia znaleziona w 'C:\Users\DK\Desktop\MGR\APU\LAB7\Tesla.txt'
> library(dplyr)
> text_df <- data_frame(line = 1, text = iconv(text,"cp1250","CP852"))
> text_df
# A tibble: 607 x 2
    line text                                                                                                          
   <dbl> <chr>                                                                                                         
 1     1 "Tesla, Inc."                                                                                                 
 2     1 "From Wikipedia, the free encyclopedia"                                                                       
 3     1 "Jump to navigationJump to search"                                                                            
 4     1 "This article is about the electric vehicle manufacturer and clean energy company. For other uses, see Tesla."
 5     1 "\"Tesla Motors\" redirects here. For Nikola Tesla's motors, see Induction motor and AC motor."               
 6     1 "Tesla, Inc."                                                                                                 
 7     1 "Tesla Motors.svg"                                                                                            
 8     1 "Tesla Visit 3 (9267529364).jpg"                                                                              
 9     1 "Headquarters in Palo Alto"                                                                                   
10     1  NA                                                                                                           
# ... with 597 more rows
…
> stop_words <- rbind(stop_words,de)
> de <- data.frame("1","OLD_WORDS")
> names(de) <- c("word","lexicon")
> de <- data.frame("hath","OLD_WORDS")
> names(de) <- c("word","lexicon")
> de <- data.frame("mar’d","OLD_WORDS")
> names(de) <- c("word","lexicon")
> stop_words <- rbind(stop_words,de)
> #----------------------
> tidy_text <- tidy_text %>%
+   anti_join(stop_words)
Joining, by = "word"
> tidy_text %>%
+   count(word, sort = TRUE)
# A tibble: 2,512 x 2
   word         n
   <chr>    <int>
 1 tesla      324
 2 model      147
 3 2020        81
 4 company     63
 5 battery     62
 6 car         56
 7 musk        56
 8 3           53
 9 electric    51
10 tesla's     50
# ... with 2,502 more rows
> #----- Bigrams ---------------
> text_bigrams <- text_df %>%
+   unnest_tokens(bigram, text, token = "ngrams", n = 2)
> text_bigrams
# A tibble: 11,435 x 2
    line bigram           
   <dbl> <chr>            
 1     1 tesla inc        
 2     1 from wikipedia   
 3     1 wikipedia the    
 4     1 the free         
 5     1 free encyclopedia
 6     1 jump to          
 7     1 to navigationjump
 8     1 navigationjump to
 9     1 to search        
10     1 this article     
# ... with 11,425 more rows
> text_bigrams %>%
+   count(bigram, sort = TRUE)
# A tibble: 8,087 x 2
   bigram            n
   <chr>         <int>
 1 NA              238
 2 of the           63
 3 the model        50
 4 in the           49
 5 model s          47
 6 model 3          43
 7 the company      43
 8 the tesla        28
 9 the first        26
10 united states    26
# ... with 8,077 more rows
> library(tidyr)
> bigrams_separated <- text_bigrams %>%
+   separate(bigram, c("word1", "word2"), sep = " ")
> bigrams_filtered <- bigrams_separated %>%
+   filter(!word1 %in% stop_words$word) %>%
+   filter(!word2 %in% stop_words$word)
> # new bigram counts:
> bigram_counts <- bigrams_filtered %>%
+   count(word1, word2, sort = TRUE)
> bigram_counts
# A tibble: 3,067 x 3
   word1    word2       n
   <chr>    <chr>   <int>
 1 NA       NA        238
 2 model    3          43
 3 tesla    model      23
 4 2020     tesla      20
 5 electric car        19
 6 main     article    16
 7 elon     musk       15
 8 article  tesla      14
 9 energy   storage    10
10 selling  plug       10
# ... with 3,057 more rows
> bigrams_united <- bigrams_filtered %>%
+   unite(bigram, word1, word2, sep = " ")
> bigrams_united
# A tibble: 4,011 x 2
    line bigram              
   <dbl> <chr>               
 1     1 free encyclopedia   
 2     1 electric vehicle    
 3     1 vehicle manufacturer
 4     1 clean energy        
 5     1 energy company      
 6     1 tesla motors        
 7     1 motors redirects    
 8     1 nikola tesla's      
 9     1 tesla's motors      
10     1 induction motor     
# ... with 4,001 more rows
…
